{
  "data": [
    {
      "id": "4323423412341202",
      "usuario":{
        "id":"000001",
        "nombre":"Roberto",
        "apellidoPaterno":"Limon",
        "apellidoMaterno":"Vega",
        "direccion":"Av. Vicente Eguia No.46 6to piso",
        "correo":"roberto-limon.vega@gmail.com",
        "telefono":"5516729180"
      },
      "saldo": 10000,
      "tipoCuenta":"EMPRESARIAL"
    }
  ]
}
